ID	Name	Designator	Footprint	Quantity	Manufacturer Part	Manufacturer	Supplier	Supplier Part
"1"	"ARDUINO_NANO"	"U2"	"ARDUINO_NANO"	"1"	""	""	""	""
"2"	"RELAY-TH_SRD-XXVDC-XL-C"	"K1,K2"	"RELAY-TH_SRD-XXVDC-XL-C"	"2"	"SRD-12VDC-SL-C"	"SONGLE"	"LCSC"	"C30431"
